➜  ~ duckdb
v1.2.1 8e52ec4395
Enter ".help" for usage hints.
Connected to a transient in-memory database.
Use ".open FILENAME" to reopen on a persistent database.
D select * from read_parquet('https://data.source.coop/youssef-harby/weather-station-realtime-parquet/archive_daily/station=01/year=2025/month=03/day=27/aggregated_20250327.parquet');
100% ▕████████████████████████████████████████████████████████████▏ 
┌──────────────────────┬──────────┬───────────┬────────────────────┬───┬───────┬─────────┬─────────┬───────┐
│      timestamp       │ latitude │ longitude │    temperature     │ … │  day  │  month  │ station │ year  │
│ timestamp with tim…  │  double  │  double   │       double       │   │ int64 │ varchar │ varchar │ int64 │
├──────────────────────┼──────────┼───────────┼────────────────────┼───┼───────┼─────────┼─────────┼───────┤
│ 2025-03-27 01:59:0…  │  30.0626 │   31.4916 │ 22.401177181187606 │ … │    27 │ 03      │ 01      │  2025 │
│ 2025-03-27 01:59:0…  │  30.0626 │   31.4916 │  22.43303633062012 │ … │    27 │ 03      │ 01      │  2025 │
│ 2025-03-27 01:59:0…  │  30.0626 │   31.4916 │ 22.470824622404148 │ … │    27 │ 03      │ 01      │  2025 │
│ 2025-03-27 01:59:0…  │  30.0626 │   31.4916 │ 22.508156827290797 │ … │    27 │ 03      │ 01      │  2025 │
│ 2025-03-27 01:59:0…  │  30.0626 │   31.4916 │  22.54412077009276 │ … │    27 │ 03      │ 01      │  2025 │
│ 2025-03-27 01:59:0…  │  30.0626 │   31.4916 │ 22.585557765394647 │ … │    27 │ 03      │ 01      │  2025 │
│ 2025-03-27 01:59:0…  │  30.0626 │   31.4916 │ 22.547313383673625 │ … │    27 │ 03      │ 01      │  2025 │
│ 2025-03-27 01:59:0…  │  30.0626 │   31.4916 │ 22.612466938167444 │ … │    27 │ 03      │ 01      │  2025 │
│ 2025-03-27 01:59:0…  │  30.0626 │   31.4916 │ 22.538714706297554 │ … │    27 │ 03      │ 01      │  2025 │
│ 2025-03-27 01:59:1…  │  30.0626 │   31.4916 │  22.45857724804923 │ … │    27 │ 03      │ 01      │  2025 │
│ 2025-03-27 01:59:1…  │  30.0626 │   31.4916 │ 22.459945511628266 │ … │    27 │ 03      │ 01      │  2025 │
│ 2025-03-27 01:59:1…  │  30.0626 │   31.4916 │  22.50867990957805 │ … │    27 │ 03      │ 01      │  2025 │
│ 2025-03-27 01:59:1…  │  30.0626 │   31.4916 │ 22.425805926009225 │ … │    27 │ 03      │ 01      │  2025 │
│ 2025-03-27 01:59:1…  │  30.0626 │   31.4916 │ 22.479557291218473 │ … │    27 │ 03      │ 01      │  2025 │
│ 2025-03-27 01:59:1…  │  30.0626 │   31.4916 │ 22.517345579317535 │ … │    27 │ 03      │ 01      │  2025 │
│ 2025-03-27 01:59:1…  │  30.0626 │   31.4916 │ 22.486331606143622 │ … │    27 │ 03      │ 01      │  2025 │
│ 2025-03-27 01:59:1…  │  30.0626 │   31.4916 │  22.40658324299746 │ … │    27 │ 03      │ 01      │  2025 │
│ 2025-03-27 01:59:2…  │  30.0626 │   31.4916 │  22.43388152173191 │ … │    27 │ 03      │ 01      │  2025 │
│ 2025-03-27 01:59:2…  │  30.0626 │   31.4916 │   22.3751131976759 │ … │    27 │ 03      │ 01      │  2025 │
│ 2025-03-27 01:59:2…  │  30.0626 │   31.4916 │  22.37830581061305 │ … │    27 │ 03      │ 01      │  2025 │
│          ·           │     ·    │      ·    │           ·        │ · │     · │ ·       │ ·       │    ·  │
│          ·           │     ·    │      ·    │           ·        │ · │     · │ ·       │ ·       │    ·  │
│          ·           │     ·    │      ·    │           ·        │ · │     · │ ·       │ ·       │    ·  │
│ 2025-03-28 01:58:3…  │  30.0626 │   31.4916 │   24.7457347524256 │ … │    27 │ 03      │ 01      │  2025 │
│ 2025-03-28 01:58:4…  │  30.0626 │   31.4916 │  24.80359115725353 │ … │    27 │ 03      │ 01      │  2025 │
│ 2025-03-28 01:58:4…  │  30.0626 │   31.4916 │ 24.864184158487056 │ … │    27 │ 03      │ 01      │  2025 │
│ 2025-03-28 01:58:4…  │  30.0626 │   31.4916 │   24.8350620078542 │ … │    27 │ 03      │ 01      │  2025 │
│ 2025-03-28 01:58:4…  │  30.0626 │   31.4916 │ 24.801378865983402 │ … │    27 │ 03      │ 01      │  2025 │
│ 2025-03-28 01:58:4…  │  30.0626 │   31.4916 │ 24.827832633459916 │ … │    27 │ 03      │ 01      │  2025 │
│ 2025-03-28 01:58:4…  │  30.0626 │   31.4916 │  24.83877902161779 │ … │    27 │ 03      │ 01      │  2025 │
│ 2025-03-28 01:58:4…  │  30.0626 │   31.4916 │ 24.740854079562453 │ … │    27 │ 03      │ 01      │  2025 │
│ 2025-03-28 01:58:4…  │  30.0626 │   31.4916 │ 24.742222378124065 │ … │    27 │ 03      │ 01      │  2025 │
│ 2025-03-28 01:58:4…  │  30.0626 │   31.4916 │ 24.794149496119786 │ … │    27 │ 03      │ 01      │  2025 │
│ 2025-03-28 01:58:5…  │  30.0626 │   31.4916 │ 24.753624866712222 │ … │    27 │ 03      │ 01      │  2025 │
│ 2025-03-28 01:58:5…  │  30.0626 │   31.4916 │ 24.760466360357764 │ … │    27 │ 03      │ 01      │  2025 │
│ 2025-03-28 01:58:5…  │  30.0626 │   31.4916 │   24.8542864064606 │ … │    27 │ 03      │ 01      │  2025 │
│ 2025-03-28 01:58:5…  │  30.0626 │   31.4916 │ 24.797798292474567 │ … │    27 │ 03      │ 01      │  2025 │
│ 2025-03-28 01:58:5…  │  30.0626 │   31.4916 │ 24.791412898922673 │ … │    27 │ 03      │ 01      │  2025 │
│ 2025-03-28 01:58:5…  │  30.0626 │   31.4916 │ 24.838322922092324 │ … │    27 │ 03      │ 01      │  2025 │
│ 2025-03-28 01:58:5…  │  30.0626 │   31.4916 │ 24.839691220673643 │ … │    27 │ 03      │ 01      │  2025 │
│ 2025-03-28 01:58:5…  │  30.0626 │   31.4916 │ 24.786395804214834 │ … │    27 │ 03      │ 01      │  2025 │
│ 2025-03-28 01:58:5…  │  30.0626 │   31.4916 │ 24.831937528908274 │ … │    27 │ 03      │ 01      │  2025 │
│ 2025-03-28 01:59:0…  │  30.0626 │   31.4916 │  24.83148142940744 │ … │    27 │ 03      │ 01      │  2025 │
├──────────────────────┴──────────┴───────────┴────────────────────┴───┴───────┴─────────┴─────────┴───────┤
│ 76649 rows (40 shown)                                                               16 columns (8 shown) │
└──────────────────────────────────────────────────────────────────────────────────────────────────────────┘
…
